{
  "eventsAndFunctions": [
    {
      "algorithm": {
        "parameters": [],
        "statements": [
          {
            "command": "GetValue",
            "variableName": "name",
            "widgetName": "txtName"
          },
          {
            "children": [
              {
                "command": "SetValue",
                "expression": "\"Missing Name\"",
                "widgetName": "fldHello"
              }
            ],
            "command": "If",
            "expression": "IsNullOrEmpty(^name)"
          },
          {
            "children": [
              {
                "command": "SetValue",
                "expression": "MsLogic.Hello(^name)",
                "widgetName": "fldHello"
              }
            ],
            "command": "Else"
          }
        ],
        "typeReturn": "any",
        "variables": [
          {
            "name": "name",
            "type": "string"
          }
        ]
      },
      "name": "btnHello_click"
    },
    {
      "algorithm": {
        "parameters": [],
        "statements": [
          {
            "command": "GetValue",
            "variableName": "name",
            "widgetName": "txtName"
          },
          {
            "command": "Execute",
            "expression": "MsLogic.InsertRecords(^name)"
          }
        ],
        "typeReturn": "any",
        "variables": [
          {
            "name": "name",
            "type": "string"
          }
        ]
      },
      "name": "btnInsert_click"
    },
    {
      "algorithm": {
        "parameters": [],
        "statements": [
          {
            "command": "AlertMessage",
            "expressionMessage": "ConvertToString(MsLogic.CountRecords())",
            "expressionTitle": "\"\"",
            "severity": "information"
          }
        ],
        "typeReturn": "any",
        "variables": []
      },
      "name": "btnCount_click"
    }
  ],
  "model": [],
  "root": {
    "children": [
      {
        "label": "Your Name:",
        "name": "txtName",
        "widget": "TextBox"
      },
      {
        "color": "primary",
        "dock": "previous",
        "name": "btnHello",
        "text": "Hello",
        "widget": "Button"
      },
      {
        "color": "default",
        "name": "fldHello",
        "widget": "Field"
      },
      {
        "color": "primary",
        "name": "btnInsert",
        "text": "Insert",
        "widget": "Button"
      },
      {
        "color": "primary",
        "name": "btnCount",
        "text": "Count",
        "widget": "Button"
      }
    ],
    "cssClass": "blz-padding-top-large blz-padding-right-large blz-padding-left-large blz-padding-bottom-large blz-area-main",
    "horizontalSeparation": "large",
    "layout": "container",
    "verticalSeparation": "large"
  },
  "routing": {
    "path": "/home"
  },
  "unused": []
}