{
  "algorithm": {
    "parameters": [],
    "statements": [
      {
        "command": "Return",
        "expression": "RdsSelectOne(MyDb.TblTest, RdsCount(1))"
      }
    ],
    "typeReturn": "integer",
    "variables": []
  },
  "routing": {
    "method": "GET",
    "path": "/count-records"
  }
}